<?xml version="1.0" encoding="utf-8"?>
<!-- Generator: Adobe Illustrator 23.0.6, SVG Export Plug-In . SVG Version: 6.00 Build 0)  -->
<svg version="1.1" id="Capa_1" xmlns="http://www.w3.org/2000/svg" xmlns:xlink="http://www.w3.org/1999/xlink" x="0px" y="0px"
	 viewBox="0 0 1024 1024" style="enable-background:new 0 0 1024 1024;" xml:space="preserve">
<style type="text/css">
	.st0{clip-path:url(#SVGID_2_);fill:#0071BC;stroke:#1A1A1A;stroke-width:60;stroke-miterlimit:10;}
	.st1{clip-path:url(#SVGID_2_);}
	.st2{fill:#DDF5FF;}
	.st3{fill:#AA0D0A;}
	.st4{fill:#840B0B;}
	.st5{fill:#0071BC;}
	.st6{fill:#045887;}
	.st7{fill:#B3B3B3;}
	.st8{fill:#A67C52;}
	.st9{fill:#CCCCCC;}
	.st10{fill:#00FFFF;}
	.st11{fill:#C1E9F4;}
	.st12{fill:#808080;}
	.st13{clip-path:url(#SVGID_4_);fill:#AA0D0A;stroke:#1A1A1A;stroke-width:60;stroke-miterlimit:10;}
	.st14{clip-path:url(#SVGID_4_);}
	.st15{fill:#333333;}
	.st16{fill:#1A1A1A;}
	.st17{fill:#F9BEB7;}
	.st18{fill:#F9D9D4;}
	.st19{fill:#FECCC1;}
	.st20{fill:#FFD664;}
</style>
<g>
	<defs>
		<circle id="SVGID_1_" cx="512" cy="512" r="484"/>
	</defs>
	<clipPath id="SVGID_2_">
		<use xlink:href="#SVGID_1_"  style="overflow:visible;"/>
	</clipPath>
	<circle class="st0" cx="512" cy="512" r="484"/>
	<g class="st1">
		<path class="st2" d="M413.31,741.71l-140.48,39.02c-56.95,15.82-96.36,67.67-96.36,126.78v105.58h671.05V907.51
			c0-59.11-39.41-110.96-96.36-126.78l-140.48-39.02H413.31z M413.31,741.71"/>
		<path class="st3" d="M543.25,860.12l19.74,98.69L512,1013.08l-50.99-54.27l19.73-98.69H543.25z M543.25,860.12"/>
		<path class="st4" d="M562.99,958.81l-19.74-98.69H512l25.03,126.32C550,972.63,562.99,958.81,562.99,958.81L562.99,958.81z
			 M562.99,958.81"/>
		<path class="st5" d="M751.17,780.72l-92.83-25.79l-49.3,156.17L512,1013.08h335.53V907.51
			C847.53,848.4,808.11,796.55,751.17,780.72L751.17,780.72z M751.17,780.72"/>
		<path class="st6" d="M751.17,780.72l-10.64-2.96c28.59,24.43,46.15,60.62,46.15,100.06v135.26h60.85V907.51
			C847.53,848.4,808.11,796.55,751.17,780.72L751.17,780.72z M751.17,780.72"/>
		<path class="st5" d="M272.83,780.72l92.83-25.79l49.3,156.17L512,1013.08H176.47V907.51C176.47,848.4,215.89,796.55,272.83,780.72
			L272.83,780.72z M272.83,780.72"/>
		<path class="st7" d="M571.21,700.58L512,759.79l-59.21-59.21v-93.75h118.42V700.58z M571.21,700.58"/>
		<rect x="666.6" y="373.28" class="st8" width="42.77" height="65.79"/>
		<rect x="314.63" y="203.87" class="st5" width="394.74" height="169.41"/>
		<path class="st6" d="M678.12,203.87v103.62c0,18.17-14.73,32.89-32.89,32.89h-330.6v32.9h394.74V203.87H678.12z M678.12,203.87"/>
		<rect x="314.63" y="373.28" class="st8" width="42.77" height="65.79"/>
		<path class="st9" d="M512,373.28H357.4V491.7c0,85.38,69.22,154.6,154.6,154.6s154.6-69.22,154.6-154.6V373.28H512z M512,373.28"
			/>
		<path class="st7" d="M620.55,373.28V491.7c0,77.56-57.12,141.78-131.58,152.9c7.51,1.12,15.2,1.71,23.02,1.71
			c85.38,0,154.6-69.22,154.6-154.6V373.28H620.55z M620.55,373.28"/>
		<path class="st7" d="M332.73,516.38h32.89v-88.82h-32.89c-18.17,0-32.9,14.73-32.9,32.9v23.02
			C299.83,501.65,314.55,516.38,332.73,516.38L332.73,516.38z M332.73,516.38"/>
		<path class="st7" d="M691.27,516.38h-32.89v-88.82h32.89c18.17,0,32.9,14.73,32.9,32.9v23.02
			C724.17,501.65,709.44,516.38,691.27,516.38L691.27,516.38z M691.27,516.38"/>
		<path class="st10" d="M819.56,376.57c0,16.35-13.25,29.6-29.6,29.6s-29.61-13.25-29.61-29.6c0-16.35,13.26-29.61,29.61-29.61
			S819.56,360.22,819.56,376.57L819.56,376.57z M819.56,376.57"/>
		<path class="st3" d="M512,860.12h31.25l32.07-37.01L512,759.79l-63.32,63.32l32.07,37.01H512z M512,860.12"/>
		<path class="st4" d="M512,759.79l-19.33,19.33l33.17,33.17c6.1,6.1,6.45,15.89,0.79,22.41l-22.04,25.43h38.65l32.07-37.01
			L512,759.79z M512,759.79"/>
		<path class="st11" d="M448.68,823.11L512,759.79l-59.21-59.21l-40.3,40.3L448.68,823.11z M448.68,823.11"/>
		<path class="st11" d="M575.32,823.11L512,759.79l59.21-59.21l40.3,40.3L575.32,823.11z M575.32,823.11"/>
		<path d="M847.53,927.56c6.81,0,12.34-5.52,12.34-12.34v-7.72c0-64.42-43.34-121.44-105.4-138.66l-135.07-37.53l-35.84-35.84
			v-52.96c45.57-21.71,79.82-63.47,91.26-113.8h16.47c24.94,0,45.23-20.29,45.23-45.23v-23.03c0-13.23-5.71-25.15-14.8-33.43V216.21
			h55.92v120.27c-17.13,5.28-29.61,21.26-29.61,40.09c0,18.83,12.48,34.81,29.61,40.09v30.63c0,6.81,5.52,12.34,12.34,12.34
			c6.81,0,12.33-5.52,12.33-12.34v-30.63c17.13-5.28,29.61-21.26,29.61-40.09c0-18.83-12.48-34.81-29.61-40.09V216.21h12.34
			c6.81,0,12.34-5.52,12.34-12.34c0-6.81-5.52-12.34-12.33-12.34H209.37c-6.81,0-12.34,5.52-12.34,12.34
			c0,6.81,5.53,12.34,12.34,12.34h92.93v24.74c0,6.81,5.52,12.33,12.34,12.33c6.81,0,12.34-5.52,12.34-12.33v-24.74h370.06v144.74
			H326.97V218.74c0-6.81-5.52-12.34-12.34-12.34c-6.81,0-12.34,5.52-12.34,12.34v208.28c-9.09,8.28-14.8,20.21-14.8,33.44v23.02
			c0,24.94,20.29,45.23,45.23,45.23h16.48c11.43,50.34,45.68,92.1,91.25,113.8v52.96l-35.84,35.85l-135.07,37.52
			c-62.06,17.22-105.4,74.24-105.4,138.67v7.71c0,6.81,5.52,12.34,12.34,12.34c6.81,0,12.34-5.52,12.34-12.34v-7.71
			c0-53.38,35.91-100.62,87.33-114.89l81.34-22.6l45.71,144.8c0.57,1.79,1.53,3.43,2.83,4.79l77.21,81.13H313.81V962.1
			c0-6.81-5.52-12.34-12.34-12.34c-6.81,0-12.34,5.52-12.34,12.34v38.65H188.81v-91.17c0-6.81-5.52-12.34-12.34-12.34
			c-6.81,0-12.34,5.52-12.34,12.34v103.51c0,6.81,5.52,12.34,12.34,12.34h671.05c6.81,0,12.34-5.52,12.34-12.34V907.72
			c0-6.81-5.52-12.34-12.34-12.34c-6.81,0-12.34,5.52-12.34,12.34v93.03H734.86V962.1c0-6.81-5.52-12.34-12.34-12.34
			c-6.81,0-12.34,5.52-12.34,12.34v38.65H540.77l77.21-81.14c1.29-1.36,2.26-3,2.83-4.79l45.71-144.81l81.35,22.6
			c51.42,14.26,87.32,61.51,87.32,114.89v7.72C835.19,922.04,840.71,927.56,847.53,927.56L847.53,927.56z M789.96,393.84
			c-9.52,0-17.27-7.75-17.27-17.27c0-9.52,7.75-17.27,17.27-17.27c9.52,0,17.27,7.75,17.27,17.27
			C807.23,386.1,799.48,393.84,789.96,393.84L789.96,393.84z M490.86,872.46h42.27l16.62,83.06L512,995.19l-37.75-39.67
			L490.86,872.46z M537.62,847.79h-51.24l-20.86-24.07L512,777.24l46.47,46.48L537.62,847.79z M571.29,801.64l-41.85-41.85
			l41.77-41.76l25.61,25.6L571.29,801.64z M711.84,483.48c0,11.34-9.22,20.56-20.56,20.56h-12.34v-64.14h12.34
			c11.34,0,20.56,9.22,20.56,20.56V483.48z M697.03,415.6c-1.89-0.24-3.8-0.38-5.76-0.38h-12.34v-29.6h18.09V415.6z M326.97,385.62
			h18.09v29.61h-12.34c-1.95,0-3.87,0.13-5.76,0.37V385.62z M345.06,504.04h-12.34c-11.34,0-20.56-9.22-20.56-20.56v-23.02
			c0-11.34,9.22-20.56,20.56-20.56h12.34V504.04z M369.73,491.7V385.62h284.54V491.7c0,78.45-63.82,142.27-142.27,142.27
			S369.73,570.15,369.73,491.7L369.73,491.7z M512,658.64c16.27,0,31.99-2.35,46.87-6.71v43.53L512,742.35l-46.87-46.87v-43.54
			C480,656.29,495.73,658.64,512,658.64L512,658.64z M452.79,718.03l41.77,41.77l-41.85,41.85l-25.52-58.01L452.79,718.03z
			 M381.27,763.41l24.64-6.85L437.35,828c0.2,0.45,0.43,0.9,0.68,1.33c0.06,0.11,0.14,0.22,0.21,0.34c0.17,0.27,0.36,0.54,0.55,0.81
			c0.1,0.14,0.21,0.27,0.32,0.41c0.08,0.1,0.16,0.21,0.25,0.31l28.11,32.44l-14,70.04l-27.6-29L381.27,763.41z M598.14,904.67
			l-27.6,29l-14-70.04l28.11-32.44c0.09-0.1,0.16-0.21,0.25-0.31c0.11-0.13,0.22-0.27,0.32-0.41c0.19-0.26,0.38-0.53,0.55-0.8
			c0.07-0.12,0.15-0.22,0.22-0.34c0.25-0.43,0.48-0.87,0.67-1.32l31.43-71.44l24.64,6.85L598.14,904.67z M598.14,904.67"/>
		<path class="st12" d="M587,516H440c-27.61,0-50-22.39-50-50v0c0-27.61,22.39-50,50-50h147c27.61,0,50,22.39,50,50v0
			C637,493.61,614.61,516,587,516z"/>
		<circle class="st10" cx="465" cy="466" r="26"/>
		<circle class="st10" cx="571" cy="466" r="26"/>
	</g>
</g>
</svg>
