<svg width="24" height="24" viewBox="0 0 24 24" fill="none" xmlns="http://www.w3.org/2000/svg">
<path fill-rule="evenodd" clip-rule="evenodd" d="M15.5 14H14.71L14.43 13.73C15.41 12.59 16 11.11 16 9.5C16 5.91 13.09 3 9.5 3C5.91 3 3 5.91 3 9.5C3 13.09 5.91 16 9.5 16C11.11 16 12.59 15.41 13.73 14.43L14 14.71V15.5L19 20.49L20.49 19L15.5 14ZM9.5 14.0001C7.01 14.0001 5 11.9901 5 9.50006C5 7.01006 7.01 5.00006 9.5 5.00006C11.99 5.00006 14 7.01006 14 9.50006C14 11.9901 11.99 14.0001 9.5 14.0001Z" fill="#94162b"/>
</svg>
